﻿datehour,nom,outil,action
2024-03-28 11:19:18,WALTZ,Cailloux,Pris
2024-03-28 11:23:30,WALTZ,Cailloux,Disponible
2024-03-28 11:24:34,WALTZ,Cailloux,Pris
2024-03-28 11:24:56,WALTZ,Baton,Pris
2024-03-28 11:30:33,WALTZ,Cailloux,Disponible
2024-03-28 11:34:38,WALTZ,Cailloux,Pris
